           ACTION PARK S.A.S
            FILIALE ITALIANA
           V.LE CIBRARIO SNC
          10043 NICHELINO (TO)
          PART.IVA 11796760012
         TELEFONO 011.024.37.57

----------------------------------------
                                   EURO
  LOCKER 12                        0.50

  TOTALE  EURO                     0.50

  CONTANTI                         0.50
  RESTO                            0.00

  OP : ADMIN
  LISTINO: PUBLICO

  29/05/18   15:14                SF.19

              EV 96066799
			  
			  